123,John,Smith,0,Example Company1
123,John,Smith,1,Example Company1
123,John,Smith,2,Example Company1
333,Aaron,Brown,0,Example Company1
456,Jane,Doe,0,Example Company1
100,Sid,Simmons,0,Great Company2
456,Jane,Doe,0,Great Company2
166,Jordan,McLemore,0,Great Company2
456,Jane,Doe,0,Small Company3
789,John,Rambo,0,Small Company3
999,Kathy,Rambo,0,Small Company3
888,Andrew,Robins,0,Small Company3